id;name;flag;code
10;Afghanistan;/flags/Afghanistan.png;AF
11;Albania;/flags/Albania.png;AL
12;Algeria;/flags/Algeria.png;DZ
13;Andorra;/flags/Andorra.png;AD
14;Angola;/flags/Angola.png;AO
15;Antigua and Barbuda;/flags/Antigua.png;AG
16;Argentina;/flags/Argentina.png;AR
17;Armenia;/flags/Armenia.png;AM
18;Australia;/flags/Australia.png;AU
19;Austria;/flags/Austria.png;AT
20;Azerbaijan;/flags/Azerbaijan.png;AZ
21;Bahamas;/flags/Bahamas.png;BS
22;Bahrain;/flags/Bahrain.png;BH
23;Bangladesh;/flags/Bangladesh.png;BD
24;Barbados;/flags/flag-of-Barbados.png;BB
25;Belarus;/flags/flag-of-Belarus.png;BY
26;Belgium;/flags/flag-of-Belgium.png;BE
27;Belize;/flags/flag-of-Belize.png;BZ
28;Benin;/flags/flag-of-Benin.png;BJ
29;Bhutan;/flags/flag-of-Bhutan.png;BT
30;Bolivia;/flags/flag-of-Bolivia.png;BO
31;Bosnia and Herzegovina;/flags/flag-of-Bosnia-Herzegovina.png;BA
32;Botswana;/flags/flag-of-Botswana.png;BW
33;Brazil;/flags/flag-of-Brazil.png;BR
34;Brunei;/flags/flag-of-Brunei.png;BN
35;Bulgaria;/flags/flag-of-Bulgaria.png;BG
36;Burkina Faso;/flags/flag-of-Burkina-Faso.png;BF
37;Burundi;/flags/flag-of-Burundi.png;BI
38;Cabo Verde;/flags/flag-of-Cabo-Verde.png;CV
39;Cambodia;/flags/flag-of-Cambodia.png;KH
40;Cameroon;/flags/flag-of-Cameroon.png;CM
41;Canada;/flags/flag-of-Canada.png;CA
42;Central African Republic;/flags/flag-of-Central-African-Republic.png;CF
43;Chad;/flags/flag-of-Chad.png;TD
44;Chile;/flags/flag-of-Chile.png;CL
45;China;/flags/flag-of-China.png;CN
46;Colombia;/flags/flag-of-Colombia.png;CO
47;Comoros;/flags/flag-of-Comoros.png;CO
48;Democratic Republic of the Congo;/flags/flag-of-Congo-Democratic-Republic.png;CD
49;Republic of the Congo;/flags/flag-of-Congo.png;CG
50;Costa Rica;/flags/flag-of-Costa-Rica.png;CR
51;Cote d'Ivoire;/flags/flag-of-Cote-d-Ivoire.png;CI
52;Croatia;/flags/flag-of-Croatia.png;HR
53;Cuba;/flags/flag-of-Cuba.png;CU
54;Cyprus;/flags/flag-of-Cyprus.png;CY
55;Czech Republic;/flags/flag-of-Czech-Republic.png;CZ
56;Denmark;/flags/flag-of-Denmark.png;DK
57;Djibouti;/flags/flag-of-Djibouti.png;DJ
58;Dominica;/flags/flag-of-Dominica.png;DM
59;Dominican Republic;/flags/flag-of-Dominican-Republic.png;DO
60;Ecuador;/flags/flag-of-Ecuador.png;EC
61;Egypt;/flags/flag-of-Egypt.png;EG
62;El Salvador;/flags/flag-of-El-Salvador.png;SV
63;Equatorial Guinea;/flags/flag-of-Equatorial-Guinea.png;GQ
64;Eritrea;/flags/flag-of-Eritrea.png;ER
65;Estonia;/flags/flag-of-Estonia.png;EE
66;Ethiopia;/flags/flag-of-Ethiopia.png;ET
67;Fiji;/flags/flag-of-Fiji.png;FJ
68;Finland;/flags/flag-of-Finland.png;FI
69;France;/flags/flag-of-France.png;FR
70;Gabon;/flags/flag-of-Gabon.png;GA
71;Gambia;/flags/flag-of-Gambia.png;GM
72;Georgia;/flags/flag-of-Georgia.png;GE
73;Germany;/flags/flag-of-Germany.png;DE
74;Ghana;/flags/flag-of-Ghana.png;GH
75;Greece;/flags/flag-of-Greece.png;GR
76;Grenada;/flags/flag-of-Grenada.png;GD
77;Guatemala;/flags/flag-of-Guatemala.png;GT
78;Guinea;/flags/flag-of-Guinea.png;GN
79;Guinea-Bissau;/flags/flag-of-Guinea-Bissau.png;GW
80;Guyana;/flags/flag-of-Guyana.png;GY
81;Haiti;/flags/flag-of-Haiti.png;HT
82;Honduras;/flags/flag-of-Honduras.png;HN
83;Hungary;/flags/flag-of-Hungary.png;HU
84;Iceland;/flags/flag-of-Iceland.png;IS
85;India;/flags/flag-of-India.png;IN
86;Indonesia;/flags/flag-of-Indonesia.png;ID
87;Iran;/flags/flag-of-Iran.png;IR
88;Iraq;/flags/flag-of-Iraq.png;IQ
89;Ireland;/flags/flag-of-Ireland.png;IE
90;Israel;/flags/flag-of-Israel.png;IL
91;Italy;/flags/flag-of-Italy.png;IT
92;Jamaica;/flags/flag-of-Jamaica.png;JM
93;Japan;/flags/flag-of-Japan.png;JP
94;Jordan;/flags/flag-of-Jordan.png;JO
95;Kazakhstan;/flags/flag-of-Kazakhstan.png;KZ
96;Kenya;/flags/flag-of-Kenya.png;KE
97;Kiribati;/flags/flag-of-Kiribati.png;KI
98;Kosovo;/flags/flag-of-Kosovo.png;XK
99;Kuwait;/flags/flag-of-Kuwait.png;KW
100;Kyrgyzstan;/flags/flag-of-Kyrgyzstan.png;KG
101;Laos;/flags/flag-of-Laos.png;LA
102;Latvia;/flags/flag-of-Latvia.png;LV
103;Lebanon;/flags/flag-of-Lebanon.png;LB
104;Lesotho;/flags/flag-of-Lesotho.png;LS
105;Liberia;/flags/flag-of-Liberia.png;LR
106;Libya;/flags/flag-of-Libya.png;LY
107;Liechtenstein;/flags/flag-of-Liechtenstein.png;LI
108;Lithuania;/flags/flag-of-Lithuania.png;LT
109;Luxembourg;/flags/flag-of-Luxembourg.png;LU
110;Macedonia;/flags/flag-of-Macedonia.png;MK
111;Madagascar;/flags/flag-of-Madagascar.png;MG
112;Malawi;/flags/flag-of-Malawi.png;MW
113;Malaysia;/flags/flag-of-Malaysia.png;MY
114;Maldives;/flags/flag-of-Maldives.png;MV
115;Mali;/flags/flag-of-Mali.png;ML
116;Malta;/flags/flag-of-Malta.png;MT
117;Marshall Islands;/flags/flag-of-Marshall-Islands.png;MH
118;Mauritania;/flags/flag-of-Mauritania.png;MR
119;Mauritius;/flags/flag-of-Mauritius.png;MU
120;Mexico;/flags/flag-of-Mexico.png;MX
121;Micronesia;/flags/flag-of-Micronesia.png;FM
122;Moldova;/flags/flag-of-Moldova.png;MD
123;Monaco;/flags/flag-of-Monaco.png;MC
124;Mongolia;/flags/flag-of-Mongolia.png;MN
125;Montenegro;/flags/flag-of-Montenegro.png;ME
126;Morocco;/flags/flag-of-Morocco.png;MA
127;Mozambique;/flags/flag-of-Mozambique.png;MZ
128;Myanmar;/flags/flag-of-Myanmar.png;MM
129;Namibia;/flags/flag-of-Namibia.png;NA
130;Nauru;/flags/flag-of-Nauru.png;NR
131;Nepal;/flags/flag-of-Nepal.png;NP
132;Netherlands;/flags/flag-of-Netherlands.png;NL
133;New Zealand;/flags/flag-of-New-Zealand.png;NZ
134;Nicaragua;/flags/flag-of-Nicaragua.png;NI
135;Niger;/flags/flag-of-Niger.png;NE
136;Nigeria;/flags/flag-of-Nigeria.png;NG
137;North Korea;/flags/flag-of-Korea-North.png;KP
138;Norway;/flags/flag-of-Norway.png;NO
139;Oman;/flags/flag-of-Oman.png;OM
140;Pakistan;/flags/flag-of-Pakistan.png;PK
141;Palau;/flags/flag-of-Palau.png;PW
142;Palestine;/flags/flag-of-Palestine.png;PS
143;Panama;/flags/flag-of-Panama.png;PA
144;Papua New Guinea;/flags/flag-of-Guyana.png;PG
145;Paraguay;/flags/flag-of-Paraguay.png;PY
146;Peru;/flags/flag-of-Peru.png;PE
147;Philippines;/flags/flag-of-Philippines.png;PH
148;Poland;/flags/flag-of-Poland.png;PL
149;Portugal;/flags/flag-of-Portugal.png;PT
150;Qatar;/flags/flag-of-Qatar.png;QA
151;Romania;/flags/flag-of-Romania.png;RO
152;Russia;/flags/flag-of-Russia.png;RU
153;Rwanda;/flags/flag-of-Rwanda.png;RW
154;Saint Kitts and Nevis;/flags/flag-of-St-Kitts-Nevis.png;KN
155;Saint Lucia;/flags/flag-of-St-Lucia.png;LC
156;Saint Vincent and the Grenadines;/flags/flag-of-St-Vincent-the-Grenadines.png;VC
157;Samoa;/flags/flag-of-Samoa.png;WS
158;San Marino;/flags/flag-of-San-Marino.png;SM
159;Sao Tome and Principe;/flags/flag-of-Sao-Tome-and-Principe.png;ST
160;Saudi Arabia;/flags/flag-of-Saudi-Arabia.png;SA
161;Senegal;/flags/flag-of-Senegal.png;SN
162;Serbia;/flags/flag-of-Serbia.png;RS
163;Seychelles;/flags/flag-of-Seychelles.png;SC
164;Sierra Leone;/flags/flag-of-Sierra-Leone.png;SL
165;Singapore;/flags/flag-of-Singapore.png;SG
166;Slovakia;/flags/flag-of-Slovakia.png;SK
167;Slovenia;/flags/flag-of-Slovenia.png;SI
168;Solomon Islands;/flags/flag-of-Solomon-Islands.png;SB
169;Somalia;/flags/flag-of-Somalia.png;SO
170;South Africa;/flags/flag-of-South-Africa.png;ZA	
171;South Korea;/flags/flag-of-Korea-South.png;KR
172;South Sudan;/flags/flag-of-South-Sudan.png;SS
173;Spain;/flags/flag-of-Spain.png;ES
174;Sri Lanka;/flags/flag-of-Sri-Lanka.png;LK
175;Sudan;/flags/flag-of-Sudan.png;SD
176;Suriname;/flags/flag-of-Suriname.png;SR
177;Swaziland;/flags/flag-of-Swaziland.png;SZ
178;Sweden;/flags/flag-of-Sweden.png;SE
179;Switzerland;/flags/flag-of-Switzerland.png;CH
180;Syria;/flags/flag-of-Syria.png;SY
181;Taiwan;/flags/flag-of-Taiwan.png;TW
182;Tajikistan;/flags/flag-of-Tajikistan.png;TJ
183;Tanzania;/flags/flag-of-Tanzania.png;TZ
184;Thailand;/flags/flag-of-Thailand.png;TH
185;Timor-Leste;/flags/flag-of-Timor-Leste.png;TL
186;Togo;/flags/flag-of-Togo.png;TG
187;Tonga;/flags/flag-of-Tonga.png;TO
188;Trinidad and Tobago;/flags/flag-of-Trinidad-and-Tobago.png;TT
189;Tunisia;/flags/flag-of-Tunisia.png;TN
190;Turkey;/flags/flag-of-Turkey.png;TR
191;Turkmenistan;/flags/flag-of-Turkmenistan.png;TM
192;Tuvalu;/flags/flag-of-Tuvalu.png;TV
193;Uganda;/flags/flag-of-Uganda.png;UG
194;Ukraine;/flags/flag-of-Ukraine.png;UA
195;United Arab Emirates;/flags/flag-of-United-Arab-Emirates.png;AE
196;United Kingdom;/flags/flag-of-United-Kingdom.png;GB
197;United States of America;/flags/flag-of-United-of-America.png;US
199;Uruguay;/flags/flag-of-Uruguay.png;UY
200;Uzbekistan;/flags/flag-of-Uzbekistan.png;UZ
201;Vanuatu;/flags/flag-of-Vanuatu.png;VU
202;Vatican City;/flags/flag-of-Vatican-City.png;VA
203;Venezuela;/flags/flag-of-Venezuela.png;VE
204;Vietnam;/flags/flag-of-Vietnam.png;VN
205;Yemen;/flags/flag-of-Yemen.png;YE
206;Zambia;/flags/flag-of-Zambia.png;ZM
207;Zimbabwe;/flags/flag-of-Zimbabwe.png;ZW