{
    "fluentMethods": true,
    "relationships": [
        {
            "relationshipName": "subject",
            "otherEntityName": "subject",
            "relationshipType": "many-to-one",
            "otherEntityField": "publication"
        },
        {
            "relationshipName": "profile",
            "otherEntityName": "profile",
            "relationshipType": "many-to-one",
            "otherEntityField": "id"
        },
        {
            "relationshipName": "response",
            "otherEntityName": "response",
            "relationshipType": "one-to-many",
            "otherEntityRelationshipName": "comment"
        },
        {
            "relationshipName": "feed",
            "otherEntityName": "feed",
            "relationshipType": "many-to-one",
            "otherEntityField": "id"
        }
    ],
    "fields": [
        {
            "fieldName": "comment",
            "fieldType": "String"
        },
        {
            "fieldName": "publicationTime",
            "fieldType": "Instant"
        }
    ],
    "changelogDate": "20170601125215",
    "dto": "no",
    "service": "no",
    "entityTableName": "comment",
    "jpaMetamodelFiltering": false,
    "pagination": "infinite-scroll"
}
