{
    "fluentMethods": true,
    "relationships": [
        {
            "relationshipName": "profile",
            "otherEntityName": "profile",
            "relationshipType": "many-to-one",
            "otherEntityField": "id"
        },
        {
            "relationshipName": "feed",
            "otherEntityName": "feed",
            "relationshipType": "many-to-one",
            "otherEntityField": "id"
        }
    ],
    "fields": [
        {
            "fieldName": "time",
            "fieldType": "Instant"
        }
    ],
    "changelogDate": "20180226101138",
    "dto": "no",
    "service": "no",
    "entityTableName": "okay",
    "jpaMetamodelFiltering": false,
    "pagination": "no"
}
