{
    "fluentMethods": true,
    "relationships": [
        {
            "relationshipName": "article",
            "otherEntityName": "article",
            "relationshipType": "many-to-one",
            "otherEntityField": "title"
        },
        {
            "relationshipName": "owner",
            "otherEntityName": "profile",
            "relationshipType": "many-to-one",
            "otherEntityField": "id"
        }
    ],
    "fields": [
        {
            "fieldName": "creationDate",
            "fieldType": "Instant"
        }
    ],
    "changelogDate": "20170525153914",
    "dto": "no",
    "service": "no",
    "entityTableName": "owned",
    "pagination": "no"
}
