{
    "fluentMethods": true,
    "relationships": [
        {
            "relationshipName": "comment",
            "otherEntityName": "comment",
            "relationshipType": "many-to-one",
            "otherEntityField": "comment"
        },
        {
            "relationshipName": "profile",
            "otherEntityName": "profile",
            "relationshipType": "many-to-one",
            "otherEntityField": "id"
        }
    ],
    "fields": [
        {
            "fieldName": "response",
            "fieldType": "String"
        },
        {
            "fieldName": "responseTime",
            "fieldType": "Instant"
        }
    ],
    "changelogDate": "20170601125416",
    "dto": "no",
    "service": "no",
    "entityTableName": "response",
    "pagination": "infinite-scroll"
}
