{
    "fluentMethods": true,
    "relationships": [
        {
            "relationshipName": "forum",
            "otherEntityName": "forum",
            "relationshipType": "many-to-one",
            "otherEntityField": "id"
        },
        {
            "relationshipName": "comment",
            "otherEntityName": "comment",
            "relationshipType": "one-to-many",
            "otherEntityRelationshipName": "subject"
        },
        {
            "relationshipName": "profile",
            "otherEntityName": "profile",
            "relationshipType": "many-to-one",
            "otherEntityField": "id"
        }
    ],
    "fields": [
        {
            "fieldName": "publication",
            "fieldType": "String"
        },
        {
            "fieldName": "publicationTime",
            "fieldType": "Instant"
        }
    ],
    "changelogDate": "20170601124843",
    "dto": "no",
    "service": "no",
    "entityTableName": "subject",
    "pagination": "infinite-scroll"
}
