<?xml version="1.0" encoding="iso-8859-1"?>
<!-- Generator: Adobe Illustrator 19.0.0, SVG Export Plug-In . SVG Version: 6.00 Build 0)  -->
<svg version="1.1" id="Capa_1" xmlns="http://www.w3.org/2000/svg" xmlns:xlink="http://www.w3.org/1999/xlink" x="0px" y="0px"
	 viewBox="0 0 432 432" style="enable-background:new 0 0 432 432;" xml:space="preserve">
<g>
	<g>
		<g>
			<polygon points="234.24,9.067 183.893,59.413 284.587,59.413 			"/>
			<polygon points="301.44,304.32 427.947,120.853 427.947,93.973 250.88,93.973 250.88,128.107 376.32,128.107 250.027,310.72 
				250.027,338.24 432,338.24 432,304.32 			"/>
			<polygon points="234.24,422.933 283.947,373.227 184.533,373.227 			"/>
			<path d="M226.773,338.24L130.987,93.76H96L0,338.24h39.253l19.627-52.267h109.013l19.627,52.267H226.773z M71.893,250.987
				L113.28,140.48l41.387,110.507H71.893z"/>
		</g>
	</g>
</g>
<g>
</g>
<g>
</g>
<g>
</g>
<g>
</g>
<g>
</g>
<g>
</g>
<g>
</g>
<g>
</g>
<g>
</g>
<g>
</g>
<g>
</g>
<g>
</g>
<g>
</g>
<g>
</g>
<g>
</g>
</svg>
